{
  "artists": {
    "href": "https://api.spotify.com/v1/search?offset=0&limit=20&query=Pink%20Floyd&type=artist",
    "limit": 20,
    "next": "https://api.spotify.com/v1/search?offset=20&limit=20&query=Pink%20Floyd&type=artist",
    "offset": 0,
    "previous": null,
    "total": 825,
    "items": [
      {
        "external_urls": {
          "spotify": "https://open.spotify.com/artist/0k17h0D3J5VfsdmQ1iZtE9"
        },
        "followers": {
          "href": null,
          "total": 22734622
        },
        "genres": [
          "progressive rock",
          "psychedelic rock",
          "classic rock",
          "art rock",
          "rock"
        ],
        "href": "https://api.spotify.com/v1/artists/0k17h0D3J5VfsdmQ1iZtE9",
        "id": "0k17h0D3J5VfsdmQ1iZtE9",
        "images": [
          {
            "url": "https://i.scdn.co/image/ab6761610000e5eb97885ce689d644c91dfba05c",
            "height": 640,
            "width": 640
          },
          {
            "url": "https://i.scdn.co/image/ab6761610000517497885ce689d644c91dfba05c",
            "height": 320,
            "width": 320
          },
          {
            "url": "https://i.scdn.co/image/ab6761610000f17897885ce689d644c91dfba05c",
            "height": 160,
            "width": 160
          }
        ],
        "name": "Pink Floyd",
        "popularity": 79,
        "type": "artist",
        "uri": "spotify:artist:0k17h0D3J5VfsdmQ1iZtE9"
      },
      {
        "external_urls": {
          "spotify": "https://open.spotify.com/artist/6HzE5kSIfyuHSQhjhjKRMF"
        },
        "followers": {
          "href": null,
          "total": 13
        },
        "genres": [],
        "href": "https://api.spotify.com/v1/artists/6HzE5kSIfyuHSQhjhjKRMF",
        "id": "6HzE5kSIfyuHSQhjhjKRMF",
        "images": [
          {
            "url": "https://i.scdn.co/image/ab67616d0000b27310d395b15e3cbecf5acf9a27",
            "height": 640,
            "width": 640
          },
          {
            "url": "https://i.scdn.co/image/ab67616d00001e0210d395b15e3cbecf5acf9a27",
            "height": 300,
            "width": 300
          },
          {
            "url": "https://i.scdn.co/image/ab67616d0000485110d395b15e3cbecf5acf9a27",
            "height": 64,
            "width": 64
          }
        ],
        "name": "Pink blood",
        "popularity": 20,
        "type": "artist",
        "uri": "spotify:artist:6HzE5kSIfyuHSQhjhjKRMF"
      },
      {
        "external_urls": {
          "spotify": "https://open.spotify.com/artist/1KCSPY1glIKqW2TotWuXOR"
        },
        "followers": {
          "href": null,
          "total": 18210519
        },
        "genres": [],
        "href": "https://api.spotify.com/v1/artists/1KCSPY1glIKqW2TotWuXOR",
        "id": "1KCSPY1glIKqW2TotWuXOR",
        "images": [
          {
            "url": "https://i.scdn.co/image/ab6761610000e5eb7bbad89a61061304ec842588",
            "height": 640,
            "width": 640
          },
          {
            "url": "https://i.scdn.co/image/ab676161000051747bbad89a61061304ec842588",
            "height": 320,
            "width": 320
          },
          {
            "url": "https://i.scdn.co/image/ab6761610000f1787bbad89a61061304ec842588",
            "height": 160,
            "width": 160
          }
        ],
        "name": "P!nk",
        "popularity": 78,
        "type": "artist",
        "uri": "spotify:artist:1KCSPY1glIKqW2TotWuXOR"
      },
      {
        "external_urls": {
          "spotify": "https://open.spotify.com/artist/36QJpDe2go2KgaRleHCDTp"
        },
        "followers": {
          "href": null,
          "total": 15983071
        },
        "genres": [
          "classic rock",
          "rock",
          "hard rock",
          "rock and roll"
        ],
        "href": "https://api.spotify.com/v1/artists/36QJpDe2go2KgaRleHCDTp",
        "id": "36QJpDe2go2KgaRleHCDTp",
        "images": [
          {
            "url": "https://i.scdn.co/image/207803ce008388d3427a685254f9de6a8f61dc2e",
            "height": 600,
            "width": 600
          },
          {
            "url": "https://i.scdn.co/image/b0248a44865493e6a03832aa89854ada16ff07a8",
            "height": 200,
            "width": 200
          },
          {
            "url": "https://i.scdn.co/image/16eb3cdae0d824b520ac17710e943a99d3ef6602",
            "height": 64,
            "width": 64
          }
        ],
        "name": "Led Zeppelin",
        "popularity": 76,
        "type": "artist",
        "uri": "spotify:artist:36QJpDe2go2KgaRleHCDTp"
      },
      {
        "external_urls": {
          "spotify": "https://open.spotify.com/artist/2Hkut4rAAyrQxRdof7FVJq"
        },
        "followers": {
          "href": null,
          "total": 2557352
        },
        "genres": [
          "progressive rock",
          "classic rock",
          "hard rock",
          "rock",
          "aor"
        ],
        "href": "https://api.spotify.com/v1/artists/2Hkut4rAAyrQxRdof7FVJq",
        "id": "2Hkut4rAAyrQxRdof7FVJq",
        "images": [
          {
            "url": "https://i.scdn.co/image/ab6761610000e5eb896c4b043fb3063178afd716",
            "height": 640,
            "width": 640
          },
          {
            "url": "https://i.scdn.co/image/ab67616100005174896c4b043fb3063178afd716",
            "height": 320,
            "width": 320
          },
          {
            "url": "https://i.scdn.co/image/ab6761610000f178896c4b043fb3063178afd716",
            "height": 160,
            "width": 160
          }
        ],
        "name": "Rush",
        "popularity": 65,
        "type": "artist",
        "uri": "spotify:artist:2Hkut4rAAyrQxRdof7FVJq"
      },
      {
        "external_urls": {
          "spotify": "https://open.spotify.com/artist/2FcC4sDMXme2ziI7tGKMK8"
        },
        "followers": {
          "href": null,
          "total": 2015626
        },
        "genres": [
          "progressive rock"
        ],
        "href": "https://api.spotify.com/v1/artists/2FcC4sDMXme2ziI7tGKMK8",
        "id": "2FcC4sDMXme2ziI7tGKMK8",
        "images": [
          {
            "url": "https://i.scdn.co/image/ab6761610000e5eb4ab2cbce7e4f8f2c9be48a71",
            "height": 640,
            "width": 640
          },
          {
            "url": "https://i.scdn.co/image/ab676161000051744ab2cbce7e4f8f2c9be48a71",
            "height": 320,
            "width": 320
          },
          {
            "url": "https://i.scdn.co/image/ab6761610000f1784ab2cbce7e4f8f2c9be48a71",
            "height": 160,
            "width": 160
          }
        ],
        "name": "David Gilmour",
        "popularity": 59,
        "type": "artist",
        "uri": "spotify:artist:2FcC4sDMXme2ziI7tGKMK8"
      },
      {
        "external_urls": {
          "spotify": "https://open.spotify.com/artist/70BYFdaZbEKbeauJ670ysI"
        },
        "followers": {
          "href": null,
          "total": 4541929
        },
        "genres": [
          "post-grunge",
          "alternative metal",
          "rock"
        ],
        "href": "https://api.spotify.com/v1/artists/70BYFdaZbEKbeauJ670ysI",
        "id": "70BYFdaZbEKbeauJ670ysI",
        "images": [
          {
            "url": "https://i.scdn.co/image/ab6761610000e5eb5c83ee58ebb4cfeed8a528e2",
            "height": 640,
            "width": 640
          },
          {
            "url": "https://i.scdn.co/image/ab676161000051745c83ee58ebb4cfeed8a528e2",
            "height": 320,
            "width": 320
          },
          {
            "url": "https://i.scdn.co/image/ab6761610000f1785c83ee58ebb4cfeed8a528e2",
            "height": 160,
            "width": 160
          }
        ],
        "name": "Shinedown",
        "popularity": 71,
        "type": "artist",
        "uri": "spotify:artist:70BYFdaZbEKbeauJ670ysI"
      },
      {
        "external_urls": {
          "spotify": "https://open.spotify.com/artist/0ECwFtbIWEVNwjlrfc6xoL"
        },
        "followers": {
          "href": null,
          "total": 12162278
        },
        "genres": [
          "classic rock",
          "yacht rock",
          "soft rock"
        ],
        "href": "https://api.spotify.com/v1/artists/0ECwFtbIWEVNwjlrfc6xoL",
        "id": "0ECwFtbIWEVNwjlrfc6xoL",
        "images": [
          {
            "url": "https://i.scdn.co/image/ab6761610000e5eb0767e116a2307495e37cd7fb",
            "height": 640,
            "width": 640
          },
          {
            "url": "https://i.scdn.co/image/ab676161000051740767e116a2307495e37cd7fb",
            "height": 320,
            "width": 320
          },
          {
            "url": "https://i.scdn.co/image/ab6761610000f1780767e116a2307495e37cd7fb",
            "height": 160,
            "width": 160
          }
        ],
        "name": "Eagles",
        "popularity": 75,
        "type": "artist",
        "uri": "spotify:artist:0ECwFtbIWEVNwjlrfc6xoL"
      },
      {
        "external_urls": {
          "spotify": "https://open.spotify.com/artist/34jw2BbxjoYalTp8cJFCPv"
        },
        "followers": {
          "href": null,
          "total": 3006879
        },
        "genres": [
          "classic rock",
          "aor",
          "rock"
        ],
        "href": "https://api.spotify.com/v1/artists/34jw2BbxjoYalTp8cJFCPv",
        "id": "34jw2BbxjoYalTp8cJFCPv",
        "images": [
          {
            "url": "https://i.scdn.co/image/ab6772690000c46c469d216a8920e0df099e4621",
            "height": 1000,
            "width": 1000
          },
          {
            "url": "https://i.scdn.co/image/ab6772690000dd22469d216a8920e0df099e4621",
            "height": 640,
            "width": 640
          },
          {
            "url": "https://i.scdn.co/image/ab6772690000bac3469d216a8920e0df099e4621",
            "height": 200,
            "width": 200
          },
          {
            "url": "https://i.scdn.co/image/ab67726900008f74469d216a8920e0df099e4621",
            "height": 64,
            "width": 64
          }
        ],
        "name": "Heart",
        "popularity": 67,
        "type": "artist",
        "uri": "spotify:artist:34jw2BbxjoYalTp8cJFCPv"
      },
      {
        "external_urls": {
          "spotify": "https://open.spotify.com/artist/6ZLTlhejhndI4Rh53vYhrY"
        },
        "followers": {
          "href": null,
          "total": 7585020
        },
        "genres": [
          "metal",
          "glam metal",
          "heavy metal",
          "hard rock"
        ],
        "href": "https://api.spotify.com/v1/artists/6ZLTlhejhndI4Rh53vYhrY",
        "id": "6ZLTlhejhndI4Rh53vYhrY",
        "images": [
          {
            "url": "https://i.scdn.co/image/ab6761610000e5ebb5b52f7e13f720c7a4856306",
            "height": 640,
            "width": 640
          },
          {
            "url": "https://i.scdn.co/image/ab67616100005174b5b52f7e13f720c7a4856306",
            "height": 320,
            "width": 320
          },
          {
            "url": "https://i.scdn.co/image/ab6761610000f178b5b52f7e13f720c7a4856306",
            "height": 160,
            "width": 160
          }
        ],
        "name": "Ozzy Osbourne",
        "popularity": 75,
        "type": "artist",
        "uri": "spotify:artist:6ZLTlhejhndI4Rh53vYhrY"
      },
      {
        "external_urls": {
          "spotify": "https://open.spotify.com/artist/711MCceyCBcFnzjGY4Q7Un"
        },
        "followers": {
          "href": null,
          "total": 32321289
        },
        "genres": [
          "rock",
          "hard rock",
          "classic rock",
          "rock and roll"
        ],
        "href": "https://api.spotify.com/v1/artists/711MCceyCBcFnzjGY4Q7Un",
        "id": "711MCceyCBcFnzjGY4Q7Un",
        "images": [
          {
            "url": "https://i.scdn.co/image/ab6761610000e5ebc4c77549095c86acb4e77b37",
            "height": 640,
            "width": 640
          },
          {
            "url": "https://i.scdn.co/image/ab67616100005174c4c77549095c86acb4e77b37",
            "height": 320,
            "width": 320
          },
          {
            "url": "https://i.scdn.co/image/ab6761610000f178c4c77549095c86acb4e77b37",
            "height": 160,
            "width": 160
          }
        ],
        "name": "AC/DC",
        "popularity": 80,
        "type": "artist",
        "uri": "spotify:artist:711MCceyCBcFnzjGY4Q7Un"
      },
      {
        "external_urls": {
          "spotify": "https://open.spotify.com/artist/1dfeR4HaWDbWqFHLkxsg1d"
        },
        "followers": {
          "href": null,
          "total": 55229056
        },
        "genres": [
          "classic rock",
          "rock",
          "glam rock"
        ],
        "href": "https://api.spotify.com/v1/artists/1dfeR4HaWDbWqFHLkxsg1d",
        "id": "1dfeR4HaWDbWqFHLkxsg1d",
        "images": [
          {
            "url": "https://i.scdn.co/image/b040846ceba13c3e9c125d68389491094e7f2982",
            "height": 806,
            "width": 999
          },
          {
            "url": "https://i.scdn.co/image/af2b8e57f6d7b5d43a616bd1e27ba552cd8bfd42",
            "height": 516,
            "width": 640
          },
          {
            "url": "https://i.scdn.co/image/c06971e9ff81696699b829484e3be165f4e64368",
            "height": 161,
            "width": 200
          },
          {
            "url": "https://i.scdn.co/image/6dd0ffd270903d1884edf9058c49f58b03db893d",
            "height": 52,
            "width": 64
          }
        ],
        "name": "Queen",
        "popularity": 82,
        "type": "artist",
        "uri": "spotify:artist:1dfeR4HaWDbWqFHLkxsg1d"
      },
      {
        "external_urls": {
          "spotify": "https://open.spotify.com/artist/0hioiM0MDloPdLjTE86zz8"
        },
        "followers": {
          "href": null,
          "total": 5124
        },
        "genres": [],
        "href": "https://api.spotify.com/v1/artists/0hioiM0MDloPdLjTE86zz8",
        "id": "0hioiM0MDloPdLjTE86zz8",
        "images": [
          {
            "url": "https://i.scdn.co/image/ab67616d0000b2738269828d84f07707b6fa5c59",
            "height": 640,
            "width": 640
          },
          {
            "url": "https://i.scdn.co/image/ab67616d00001e028269828d84f07707b6fa5c59",
            "height": 300,
            "width": 300
          },
          {
            "url": "https://i.scdn.co/image/ab67616d000048518269828d84f07707b6fa5c59",
            "height": 64,
            "width": 64
          }
        ],
        "name": "Pink Floyd Redux",
        "popularity": 1,
        "type": "artist",
        "uri": "spotify:artist:0hioiM0MDloPdLjTE86zz8"
      },
      {
        "external_urls": {
          "spotify": "https://open.spotify.com/artist/0hdBO1QbB63ixZNRBFD0K9"
        },
        "followers": {
          "href": null,
          "total": 1590
        },
        "genres": [],
        "href": "https://api.spotify.com/v1/artists/0hdBO1QbB63ixZNRBFD0K9",
        "id": "0hdBO1QbB63ixZNRBFD0K9",
        "images": [
          {
            "url": "https://i.scdn.co/image/ab67616d0000b273f22dce385a0cb9369d196c25",
            "height": 640,
            "width": 640
          },
          {
            "url": "https://i.scdn.co/image/ab67616d00001e02f22dce385a0cb9369d196c25",
            "height": 300,
            "width": 300
          },
          {
            "url": "https://i.scdn.co/image/ab67616d00004851f22dce385a0cb9369d196c25",
            "height": 64,
            "width": 64
          }
        ],
        "name": "Pink Floyd Project",
        "popularity": 5,
        "type": "artist",
        "uri": "spotify:artist:0hdBO1QbB63ixZNRBFD0K9"
      },
      {
        "external_urls": {
          "spotify": "https://open.spotify.com/artist/4KGRdjEaSxyYVQ9EqOdOKl"
        },
        "followers": {
          "href": null,
          "total": 53
        },
        "genres": [],
        "href": "https://api.spotify.com/v1/artists/4KGRdjEaSxyYVQ9EqOdOKl",
        "id": "4KGRdjEaSxyYVQ9EqOdOKl",
        "images": [],
        "name": "PINK FLOYD MAYWEATHER",
        "popularity": 0,
        "type": "artist",
        "uri": "spotify:artist:4KGRdjEaSxyYVQ9EqOdOKl"
      },
      {
        "external_urls": {
          "spotify": "https://open.spotify.com/artist/64RD6VVE6aXfoVFSJ2k06x"
        },
        "followers": {
          "href": null,
          "total": 118
        },
        "genres": [],
        "href": "https://api.spotify.com/v1/artists/64RD6VVE6aXfoVFSJ2k06x",
        "id": "64RD6VVE6aXfoVFSJ2k06x",
        "images": [
          {
            "url": "https://i.scdn.co/image/ab67616d0000b2732506ac4fb94c7016dd828956",
            "height": 640,
            "width": 640
          },
          {
            "url": "https://i.scdn.co/image/ab67616d00001e022506ac4fb94c7016dd828956",
            "height": 300,
            "width": 300
          },
          {
            "url": "https://i.scdn.co/image/ab67616d000048512506ac4fb94c7016dd828956",
            "height": 64,
            "width": 64
          }
        ],
        "name": "pink floyd tribute",
        "popularity": 8,
        "type": "artist",
        "uri": "spotify:artist:64RD6VVE6aXfoVFSJ2k06x"
      },
      {
        "external_urls": {
          "spotify": "https://open.spotify.com/artist/2tDvdcTW7H4vYW7S18MA2e"
        },
        "followers": {
          "href": null,
          "total": 3383
        },
        "genres": [],
        "href": "https://api.spotify.com/v1/artists/2tDvdcTW7H4vYW7S18MA2e",
        "id": "2tDvdcTW7H4vYW7S18MA2e",
        "images": [
          {
            "url": "https://i.scdn.co/image/ab67616d0000b273e5fda56f522e2e88befc20d5",
            "height": 640,
            "width": 640
          },
          {
            "url": "https://i.scdn.co/image/ab67616d00001e02e5fda56f522e2e88befc20d5",
            "height": 300,
            "width": 300
          },
          {
            "url": "https://i.scdn.co/image/ab67616d00004851e5fda56f522e2e88befc20d5",
            "height": 64,
            "width": 64
          }
        ],
        "name": "The Pink Floyd Story",
        "popularity": 5,
        "type": "artist",
        "uri": "spotify:artist:2tDvdcTW7H4vYW7S18MA2e"
      },
      {
        "external_urls": {
          "spotify": "https://open.spotify.com/artist/4Kqp4AtoCDoCotN7KjrLKL"
        },
        "followers": {
          "href": null,
          "total": 2773
        },
        "genres": [],
        "href": "https://api.spotify.com/v1/artists/4Kqp4AtoCDoCotN7KjrLKL",
        "id": "4Kqp4AtoCDoCotN7KjrLKL",
        "images": [
          {
            "url": "https://i.scdn.co/image/ab67616d0000b273c53cafd11f6fe338cf5ea13e",
            "height": 640,
            "width": 640
          },
          {
            "url": "https://i.scdn.co/image/ab67616d00001e02c53cafd11f6fe338cf5ea13e",
            "height": 300,
            "width": 300
          },
          {
            "url": "https://i.scdn.co/image/ab67616d00004851c53cafd11f6fe338cf5ea13e",
            "height": 64,
            "width": 64
          }
        ],
        "name": "Pink Floyd History",
        "popularity": 12,
        "type": "artist",
        "uri": "spotify:artist:4Kqp4AtoCDoCotN7KjrLKL"
      },
      {
        "external_urls": {
          "spotify": "https://open.spotify.com/artist/77hVxSyFhrS6zEzSuk7TQI"
        },
        "followers": {
          "href": null,
          "total": 938
        },
        "genres": [],
        "href": "https://api.spotify.com/v1/artists/77hVxSyFhrS6zEzSuk7TQI",
        "id": "77hVxSyFhrS6zEzSuk7TQI",
        "images": [],
        "name": "Pink Floyd Tribute Band",
        "popularity": 21,
        "type": "artist",
        "uri": "spotify:artist:77hVxSyFhrS6zEzSuk7TQI"
      },
      {
        "external_urls": {
          "spotify": "https://open.spotify.com/artist/6QvBTZOpVhDqw3qFeBagCa"
        },
        "followers": {
          "href": null,
          "total": 7836
        },
        "genres": [],
        "href": "https://api.spotify.com/v1/artists/6QvBTZOpVhDqw3qFeBagCa",
        "id": "6QvBTZOpVhDqw3qFeBagCa",
        "images": [
          {
            "url": "https://i.scdn.co/image/ab67616d0000b273b6c1178d7f41f48160729c88",
            "height": 640,
            "width": 640
          },
          {
            "url": "https://i.scdn.co/image/ab67616d00001e02b6c1178d7f41f48160729c88",
            "height": 300,
            "width": 300
          },
          {
            "url": "https://i.scdn.co/image/ab67616d00004851b6c1178d7f41f48160729c88",
            "height": 64,
            "width": 64
          }
        ],
        "name": "The Australian Pink Floyd Show",
        "popularity": 13,
        "type": "artist",
        "uri": "spotify:artist:6QvBTZOpVhDqw3qFeBagCa"
      }
    ]
  }
}