{
  "artists": {
    "href": "https://api.spotify.com/v1/search?offset=0&limit=20&query=rock&type=artist",
    "limit": 20,
    "next": "https://api.spotify.com/v1/search?offset=20&limit=20&query=rock&type=artist",
    "offset": 0,
    "previous": null,
    "total": 117,
    "items": [
      {
        "external_urls": {
          "spotify": "https://open.spotify.com/artist/5bHjVR4F2Tfq4Ha6x7K6wU"
        },
        "followers": {
          "href": null,
          "total": 345118
        },
        "genres": [
          "lullaby"
        ],
        "href": "https://api.spotify.com/v1/artists/5bHjVR4F2Tfq4Ha6x7K6wU",
        "id": "5bHjVR4F2Tfq4Ha6x7K6wU",
        "images": [
          {
            "url": "https://i.scdn.co/image/ab6761610000e5eb293c187c0da77de5a304b5bd",
            "height": 640,
            "width": 640
          },
          {
            "url": "https://i.scdn.co/image/ab67616100005174293c187c0da77de5a304b5bd",
            "height": 320,
            "width": 320
          },
          {
            "url": "https://i.scdn.co/image/ab6761610000f178293c187c0da77de5a304b5bd",
            "height": 160,
            "width": 160
          }
        ],
        "name": "Rockabye Baby!",
        "popularity": 58,
        "type": "artist",
        "uri": "spotify:artist:5bHjVR4F2Tfq4Ha6x7K6wU"
      },
      {
        "external_urls": {
          "spotify": "https://open.spotify.com/artist/6TMJgSdBIPPtQJbAB8yPpO"
        },
        "followers": {
          "href": null,
          "total": 26524
        },
        "genres": [
          "shoegaze"
        ],
        "href": "https://api.spotify.com/v1/artists/6TMJgSdBIPPtQJbAB8yPpO",
        "id": "6TMJgSdBIPPtQJbAB8yPpO",
        "images": [
          {
            "url": "https://i.scdn.co/image/ab6761610000e5eb354d6312e5a12c86622e294d",
            "height": 640,
            "width": 640
          },
          {
            "url": "https://i.scdn.co/image/ab67616100005174354d6312e5a12c86622e294d",
            "height": 320,
            "width": 320
          },
          {
            "url": "https://i.scdn.co/image/ab6761610000f178354d6312e5a12c86622e294d",
            "height": 160,
            "width": 160
          }
        ],
        "name": "Rocket",
        "popularity": 40,
        "type": "artist",
        "uri": "spotify:artist:6TMJgSdBIPPtQJbAB8yPpO"
      },
      {
        "external_urls": {
          "spotify": "https://open.spotify.com/artist/6zeQl72GknqjTGCbrzvSbc"
        },
        "followers": {
          "href": null,
          "total": 74454
        },
        "genres": [],
        "href": "https://api.spotify.com/v1/artists/6zeQl72GknqjTGCbrzvSbc",
        "id": "6zeQl72GknqjTGCbrzvSbc",
        "images": [
          {
            "url": "https://i.scdn.co/image/ab6761610000e5eb182221b64c512112f8c20582",
            "height": 640,
            "width": 640
          },
          {
            "url": "https://i.scdn.co/image/ab67616100005174182221b64c512112f8c20582",
            "height": 320,
            "width": 320
          },
          {
            "url": "https://i.scdn.co/image/ab6761610000f178182221b64c512112f8c20582",
            "height": 160,
            "width": 160
          }
        ],
        "name": "Rockout Danny",
        "popularity": 56,
        "type": "artist",
        "uri": "spotify:artist:6zeQl72GknqjTGCbrzvSbc"
      },
      {
        "external_urls": {
          "spotify": "https://open.spotify.com/artist/3xs0LEzcPXtgNfMNcHzLIP"
        },
        "followers": {
          "href": null,
          "total": 119438
        },
        "genres": [],
        "href": "https://api.spotify.com/v1/artists/3xs0LEzcPXtgNfMNcHzLIP",
        "id": "3xs0LEzcPXtgNfMNcHzLIP",
        "images": [
          {
            "url": "https://i.scdn.co/image/ab6772690000c46c38e130e4a87d0d8a46912426",
            "height": 1000,
            "width": 1000
          },
          {
            "url": "https://i.scdn.co/image/ab6772690000dd2238e130e4a87d0d8a46912426",
            "height": 640,
            "width": 640
          },
          {
            "url": "https://i.scdn.co/image/ab6772690000bac338e130e4a87d0d8a46912426",
            "height": 200,
            "width": 200
          },
          {
            "url": "https://i.scdn.co/image/ab67726900008f7438e130e4a87d0d8a46912426",
            "height": 64,
            "width": 64
          }
        ],
        "name": "Rockwell",
        "popularity": 67,
        "type": "artist",
        "uri": "spotify:artist:3xs0LEzcPXtgNfMNcHzLIP"
      },
      {
        "external_urls": {
          "spotify": "https://open.spotify.com/artist/0pPN4tp51uXAhkDux1Mmn4"
        },
        "followers": {
          "href": null,
          "total": 361806
        },
        "genres": [],
        "href": "https://api.spotify.com/v1/artists/0pPN4tp51uXAhkDux1Mmn4",
        "id": "0pPN4tp51uXAhkDux1Mmn4",
        "images": [
          {
            "url": "https://i.scdn.co/image/ab6761610000e5ebe6060ac232ab808f452f3358",
            "height": 640,
            "width": 640
          },
          {
            "url": "https://i.scdn.co/image/ab67616100005174e6060ac232ab808f452f3358",
            "height": 320,
            "width": 320
          },
          {
            "url": "https://i.scdn.co/image/ab6761610000f178e6060ac232ab808f452f3358",
            "height": 160,
            "width": 160
          }
        ],
        "name": "Rockit Music",
        "popularity": 53,
        "type": "artist",
        "uri": "spotify:artist:0pPN4tp51uXAhkDux1Mmn4"
      },
      {
        "external_urls": {
          "spotify": "https://open.spotify.com/artist/0T5OJgMVjKIX3b3W3ekqOl"
        },
        "followers": {
          "href": null,
          "total": 568836
        },
        "genres": [
          "southern hip hop"
        ],
        "href": "https://api.spotify.com/v1/artists/0T5OJgMVjKIX3b3W3ekqOl",
        "id": "0T5OJgMVjKIX3b3W3ekqOl",
        "images": [
          {
            "url": "https://i.scdn.co/image/97467afd63b54a8c7b334fc5b12d3b498f3f4c9e",
            "height": 400,
            "width": 267
          },
          {
            "url": "https://i.scdn.co/image/7b1555d3d8ec53ed03c9137d5b371f09aeaceeb4",
            "height": 300,
            "width": 200
          },
          {
            "url": "https://i.scdn.co/image/44eeadbc6dad06ed97e94d983c6402a134bfac63",
            "height": 96,
            "width": 64
          }
        ],
        "name": "Rocko",
        "popularity": 49,
        "type": "artist",
        "uri": "spotify:artist:0T5OJgMVjKIX3b3W3ekqOl"
      },
      {
        "external_urls": {
          "spotify": "https://open.spotify.com/artist/5INjqkS1o8h1imAzPqGZBb"
        },
        "followers": {
          "href": null,
          "total": 9537600
        },
        "genres": [
          "neo-psychedelic",
          "indie"
        ],
        "href": "https://api.spotify.com/v1/artists/5INjqkS1o8h1imAzPqGZBb",
        "id": "5INjqkS1o8h1imAzPqGZBb",
        "images": [
          {
            "url": "https://i.scdn.co/image/ab6761610000e5ebe412a782245eb20d9626c601",
            "height": 640,
            "width": 640
          },
          {
            "url": "https://i.scdn.co/image/ab67616100005174e412a782245eb20d9626c601",
            "height": 320,
            "width": 320
          },
          {
            "url": "https://i.scdn.co/image/ab6761610000f178e412a782245eb20d9626c601",
            "height": 160,
            "width": 160
          }
        ],
        "name": "Tame Impala",
        "popularity": 85,
        "type": "artist",
        "uri": "spotify:artist:5INjqkS1o8h1imAzPqGZBb"
      },
      {
        "external_urls": {
          "spotify": "https://open.spotify.com/artist/7dOBabd5O4CvKrg4iriHTM"
        },
        "followers": {
          "href": null,
          "total": 2996725
        },
        "genres": [],
        "href": "https://api.spotify.com/v1/artists/7dOBabd5O4CvKrg4iriHTM",
        "id": "7dOBabd5O4CvKrg4iriHTM",
        "images": [
          {
            "url": "https://i.scdn.co/image/ab6761610000e5eb2306846cafba63385008dc21",
            "height": 640,
            "width": 640
          },
          {
            "url": "https://i.scdn.co/image/ab676161000051742306846cafba63385008dc21",
            "height": 320,
            "width": 320
          },
          {
            "url": "https://i.scdn.co/image/ab6761610000f1782306846cafba63385008dc21",
            "height": 160,
            "width": 160
          }
        ],
        "name": "Kid Rock",
        "popularity": 65,
        "type": "artist",
        "uri": "spotify:artist:7dOBabd5O4CvKrg4iriHTM"
      },
      {
        "external_urls": {
          "spotify": "https://open.spotify.com/artist/6XyY86QOPPrYVGvF9ch6wz"
        },
        "followers": {
          "href": null,
          "total": 31830642
        },
        "genres": [
          "nu metal",
          "rap metal",
          "rock",
          "alternative metal"
        ],
        "href": "https://api.spotify.com/v1/artists/6XyY86QOPPrYVGvF9ch6wz",
        "id": "6XyY86QOPPrYVGvF9ch6wz",
        "images": [
          {
            "url": "https://i.scdn.co/image/ab6761610000e5eb527d95dabbe8b8b527e8136f",
            "height": 640,
            "width": 640
          },
          {
            "url": "https://i.scdn.co/image/ab67616100005174527d95dabbe8b8b527e8136f",
            "height": 320,
            "width": 320
          },
          {
            "url": "https://i.scdn.co/image/ab6761610000f178527d95dabbe8b8b527e8136f",
            "height": 160,
            "width": 160
          }
        ],
        "name": "Linkin Park",
        "popularity": 88,
        "type": "artist",
        "uri": "spotify:artist:6XyY86QOPPrYVGvF9ch6wz"
      },
      {
        "external_urls": {
          "spotify": "https://open.spotify.com/artist/21WS9wngs9AqFckK7yYJPM"
        },
        "followers": {
          "href": null,
          "total": 4288585
        },
        "genres": [
          "melodic rap"
        ],
        "href": "https://api.spotify.com/v1/artists/21WS9wngs9AqFckK7yYJPM",
        "id": "21WS9wngs9AqFckK7yYJPM",
        "images": [
          {
            "url": "https://i.scdn.co/image/ab6761610000e5eb4962230cc9649e2083ac1665",
            "height": 640,
            "width": 640
          },
          {
            "url": "https://i.scdn.co/image/ab676161000051744962230cc9649e2083ac1665",
            "height": 320,
            "width": 320
          },
          {
            "url": "https://i.scdn.co/image/ab6761610000f1784962230cc9649e2083ac1665",
            "height": 160,
            "width": 160
          }
        ],
        "name": "PnB Rock",
        "popularity": 66,
        "type": "artist",
        "uri": "spotify:artist:21WS9wngs9AqFckK7yYJPM"
      },
      {
        "external_urls": {
          "spotify": "https://open.spotify.com/artist/13ubrt8QOOCPljQ2FL1Kca"
        },
        "followers": {
          "href": null,
          "total": 17341355
        },
        "genres": [
          "rap"
        ],
        "href": "https://api.spotify.com/v1/artists/13ubrt8QOOCPljQ2FL1Kca",
        "id": "13ubrt8QOOCPljQ2FL1Kca",
        "images": [
          {
            "url": "https://i.scdn.co/image/ab6761610000e5eb5c58c41a506a0d6b32cc6cad",
            "height": 640,
            "width": 640
          },
          {
            "url": "https://i.scdn.co/image/ab676161000051745c58c41a506a0d6b32cc6cad",
            "height": 320,
            "width": 320
          },
          {
            "url": "https://i.scdn.co/image/ab6761610000f1785c58c41a506a0d6b32cc6cad",
            "height": 160,
            "width": 160
          }
        ],
        "name": "A$AP Rocky",
        "popularity": 82,
        "type": "artist",
        "uri": "spotify:artist:13ubrt8QOOCPljQ2FL1Kca"
      },
      {
        "external_urls": {
          "spotify": "https://open.spotify.com/artist/28ExwzUQsvgJooOI0X1mr3"
        },
        "followers": {
          "href": null,
          "total": 1633727
        },
        "genres": [],
        "href": "https://api.spotify.com/v1/artists/28ExwzUQsvgJooOI0X1mr3",
        "id": "28ExwzUQsvgJooOI0X1mr3",
        "images": [
          {
            "url": "https://i.scdn.co/image/ab6761610000e5eb9c48431caf52a2d0f38433ff",
            "height": 640,
            "width": 640
          },
          {
            "url": "https://i.scdn.co/image/ab676161000051749c48431caf52a2d0f38433ff",
            "height": 320,
            "width": 320
          },
          {
            "url": "https://i.scdn.co/image/ab6761610000f1789c48431caf52a2d0f38433ff",
            "height": 160,
            "width": 160
          }
        ],
        "name": "Jay Rock",
        "popularity": 69,
        "type": "artist",
        "uri": "spotify:artist:28ExwzUQsvgJooOI0X1mr3"
      },
      {
        "external_urls": {
          "spotify": "https://open.spotify.com/artist/7vKlWZCVYQIdYzo6anAGkE"
        },
        "followers": {
          "href": null,
          "total": 1327
        },
        "genres": [],
        "href": "https://api.spotify.com/v1/artists/7vKlWZCVYQIdYzo6anAGkE",
        "id": "7vKlWZCVYQIdYzo6anAGkE",
        "images": [
          {
            "url": "https://i.scdn.co/image/ab67616d0000b273e1451e3f6635149376a742cb",
            "height": 640,
            "width": 640
          },
          {
            "url": "https://i.scdn.co/image/ab67616d00001e02e1451e3f6635149376a742cb",
            "height": 300,
            "width": 300
          },
          {
            "url": "https://i.scdn.co/image/ab67616d00004851e1451e3f6635149376a742cb",
            "height": 64,
            "width": 64
          }
        ],
        "name": "rock",
        "popularity": 29,
        "type": "artist",
        "uri": "spotify:artist:7vKlWZCVYQIdYzo6anAGkE"
      },
      {
        "external_urls": {
          "spotify": "https://open.spotify.com/artist/2KTDVOTp2crzV4KBe16SgW"
        },
        "followers": {
          "href": null,
          "total": 4321
        },
        "genres": [],
        "href": "https://api.spotify.com/v1/artists/2KTDVOTp2crzV4KBe16SgW",
        "id": "2KTDVOTp2crzV4KBe16SgW",
        "images": [
          {
            "url": "https://i.scdn.co/image/ab6761610000e5eb3be664b0e571500cc7722fd5",
            "height": 640,
            "width": 640
          },
          {
            "url": "https://i.scdn.co/image/ab676161000051743be664b0e571500cc7722fd5",
            "height": 320,
            "width": 320
          },
          {
            "url": "https://i.scdn.co/image/ab6761610000f1783be664b0e571500cc7722fd5",
            "height": 160,
            "width": 160
          }
        ],
        "name": "Rock",
        "popularity": 16,
        "type": "artist",
        "uri": "spotify:artist:2KTDVOTp2crzV4KBe16SgW"
      },
      {
        "external_urls": {
          "spotify": "https://open.spotify.com/artist/2VVFy42xhI7yfomKFAxlCA"
        },
        "followers": {
          "href": null,
          "total": 1824
        },
        "genres": [],
        "href": "https://api.spotify.com/v1/artists/2VVFy42xhI7yfomKFAxlCA",
        "id": "2VVFy42xhI7yfomKFAxlCA",
        "images": [
          {
            "url": "https://i.scdn.co/image/ab6761610000e5eb29eb012c01dabf6f68d1de19",
            "height": 640,
            "width": 640
          },
          {
            "url": "https://i.scdn.co/image/ab6761610000517429eb012c01dabf6f68d1de19",
            "height": 320,
            "width": 320
          },
          {
            "url": "https://i.scdn.co/image/ab6761610000f17829eb012c01dabf6f68d1de19",
            "height": 160,
            "width": 160
          }
        ],
        "name": "Rock",
        "popularity": 14,
        "type": "artist",
        "uri": "spotify:artist:2VVFy42xhI7yfomKFAxlCA"
      },
      {
        "external_urls": {
          "spotify": "https://open.spotify.com/artist/6JDmbR90UIGFaZcVsbmBWe"
        },
        "followers": {
          "href": null,
          "total": 1887
        },
        "genres": [],
        "href": "https://api.spotify.com/v1/artists/6JDmbR90UIGFaZcVsbmBWe",
        "id": "6JDmbR90UIGFaZcVsbmBWe",
        "images": [
          {
            "url": "https://i.scdn.co/image/ab67616d0000b2731298a37825bcb72c82773a8b",
            "height": 640,
            "width": 640
          },
          {
            "url": "https://i.scdn.co/image/ab67616d00001e021298a37825bcb72c82773a8b",
            "height": 300,
            "width": 300
          },
          {
            "url": "https://i.scdn.co/image/ab67616d000048511298a37825bcb72c82773a8b",
            "height": 64,
            "width": 64
          }
        ],
        "name": "Rock",
        "popularity": 7,
        "type": "artist",
        "uri": "spotify:artist:6JDmbR90UIGFaZcVsbmBWe"
      },
      {
        "external_urls": {
          "spotify": "https://open.spotify.com/artist/3eCElW1X5SA87sV9fM1wpQ"
        },
        "followers": {
          "href": null,
          "total": 757
        },
        "genres": [],
        "href": "https://api.spotify.com/v1/artists/3eCElW1X5SA87sV9fM1wpQ",
        "id": "3eCElW1X5SA87sV9fM1wpQ",
        "images": [
          {
            "url": "https://i.scdn.co/image/ab67616d0000b273535c4fd87b72300432afd29b",
            "height": 640,
            "width": 640
          },
          {
            "url": "https://i.scdn.co/image/ab67616d00001e02535c4fd87b72300432afd29b",
            "height": 300,
            "width": 300
          },
          {
            "url": "https://i.scdn.co/image/ab67616d00004851535c4fd87b72300432afd29b",
            "height": 64,
            "width": 64
          }
        ],
        "name": "Rock",
        "popularity": 2,
        "type": "artist",
        "uri": "spotify:artist:3eCElW1X5SA87sV9fM1wpQ"
      },
      {
        "external_urls": {
          "spotify": "https://open.spotify.com/artist/5YQ2oxTa1E2kaDX5tiDVzo"
        },
        "followers": {
          "href": null,
          "total": 104
        },
        "genres": [],
        "href": "https://api.spotify.com/v1/artists/5YQ2oxTa1E2kaDX5tiDVzo",
        "id": "5YQ2oxTa1E2kaDX5tiDVzo",
        "images": [],
        "name": "Rock",
        "popularity": 2,
        "type": "artist",
        "uri": "spotify:artist:5YQ2oxTa1E2kaDX5tiDVzo"
      },
      {
        "external_urls": {
          "spotify": "https://open.spotify.com/artist/2WtzprkWeq1YQZsniLzKUY"
        },
        "followers": {
          "href": null,
          "total": 262
        },
        "genres": [
          "boom bap"
        ],
        "href": "https://api.spotify.com/v1/artists/2WtzprkWeq1YQZsniLzKUY",
        "id": "2WtzprkWeq1YQZsniLzKUY",
        "images": [],
        "name": "Rock",
        "popularity": 3,
        "type": "artist",
        "uri": "spotify:artist:2WtzprkWeq1YQZsniLzKUY"
      },
      {
        "external_urls": {
          "spotify": "https://open.spotify.com/artist/5LlbAkA33C6DxVln0Wczps"
        },
        "followers": {
          "href": null,
          "total": 65
        },
        "genres": [
          "slowcore"
        ],
        "href": "https://api.spotify.com/v1/artists/5LlbAkA33C6DxVln0Wczps",
        "id": "5LlbAkA33C6DxVln0Wczps",
        "images": [
          {
            "url": "https://i.scdn.co/image/ab67616d0000b2730d32531b7bf9cb37657a3559",
            "height": 640,
            "width": 640
          },
          {
            "url": "https://i.scdn.co/image/ab67616d00001e020d32531b7bf9cb37657a3559",
            "height": 300,
            "width": 300
          },
          {
            "url": "https://i.scdn.co/image/ab67616d000048510d32531b7bf9cb37657a3559",
            "height": 64,
            "width": 64
          }
        ],
        "name": "ROCK",
        "popularity": 0,
        "type": "artist",
        "uri": "spotify:artist:5LlbAkA33C6DxVln0Wczps"
      }
    ]
  }
}